[
  {
    "idTipoCarro": 1,
    "tipoCarro": "Passeio ",
    "carros": [
      {
        "idCarro": 1,
        "nomeCarro": "Sandeiro",
        "urlIimage": "http://img.olx.com.br/images/34/349803006655584.jpg"
      },
      {
        "idCarro": 2,
        "nomeCarro": "HB 20",
        "urlIimage": "http://img.olx.com.br/images/96/962726108821625.jpg"
      },
      {
        "idCarro": 3,
        "nomeCarro": "HRV",
        "urlIimage": "http://img.olx.com.br/images/50/505711098784658.jpg"
      }
    ]
  },
  {
    "idTipoCarro": 2,
    "tipoCarro": "Esportivo ",
    "carros": [
      {
        "idCarro": 1,
        "nomeCarro": "Camaro",
        "urlIimage": "http://img.olx.com.br/images/88/889709036007504.jpg"
      },
      {
        "idCarro": 2,
        "nomeCarro": "Ferrari",
        "urlIimage": "http://img.olx.com.br/images/27/277727118650506.jpg"
      },
      {
        "idCarro": 3,
        "nomeCarro": "IX 35",
        "urlIimage": "http://img.olx.com.br/images/09/096709117628115.jpg"
      }
    ]
  }
]
